Slno,Name,Address
1.,Abbas Khan Degree College for Women - Bangalore,"HH Durga, Cubbonpet, Bangalore, Karnataka"
2.,"Academy of Business Management, Tourism & Research - Bangalore","Garvebhavipalaya,Opposite HTMT,Hosur Main Road, Bangalore, Karnataka Telephone: +91-80-25730444, 25731731,  Fax: +91-80-25730444"
3.,Acharya Institue of Management and Sciences - Bangalore,"Ist Stage, Ist Cross, Peenya Industrial Area, Bangalore, Karnataka Telephone: +91-80-28390433, 28390434,  Fax: +91-80-28378268"
4.,Acharya Institute of Technology - Bangalore,"Soledevana Halli, Hesaraghatta Main Road, Chikkabanawara Post, Bangalore, Karnataka Telephone: +91-80-28396011, 23720009, 23723466,  Fax: +91-80-23700242"
5.,Acharya Pathasala College of Commerce - Bangalore,"NR Colony, Bangalore, Karnataka"
6.,Adarsh Business School - Bangalore,"49/1 Shankarmutt Road, Shankarpuram, Bangalore, Karnataka Telephone: +91-80-55375066/55375067/55375068,  Fax: +91-80-26526586"
7.,Adarsha College of Science & Commerce - Bangalore,"CIT NO.3 12th Cross, 1st Block R.T. Nagar, Bangalore, Karnataka Telephone: +91-80-23332789,  Fax: +91-80-23332789"
8.,Administrative Management College - Bangalore,"AMC Building, 30th Cross, 4th Block, Jaya Nagar, Bangalore, Karnataka Telephone: +91-80-26638991, 26638992,  Fax: +91-80-26638994"
9.,"Al-Ameen Arts, Science & Commerce College - Bangalore","Hosur Road,Near Lalbagh Road, Main Gate, Bangalore, Karnataka Telephone: +91-80-22222402, 22235626,  Fax: +91-80-22246565"
10.,Al-Ameen Institute of Management Studies - Bangalore,"Near Lalbagh Main Gate, Hosur Road, Bangalore, Karnataka Telephone: +91-80-55317074,  Fax: +91-80-22279235"
11.,Alpha College of Engineering - Bangalore,"30/2,Doddagubbi Post, Bangalore, Karnataka Telephone: +91-80-28445218,  Fax: +91-80-28445219."
12.,AMC College of Engineering - Bangalore,"30th Cross, 4th Block, Behind Police Station, Jayanagar, Bangalore, Karnataka Telephone: +91-80-26638991/992,  Fax: +91-80-26638994"
13.,Amrita School of Engineering - Bangalore,"26 & 27,Kasavanhalli, Bellandore,Off.Sarjapura Road, Bangalore, Karnataka Telephone: +91-80-28439565,  Fax: +91-80-28439565"
14.,APS College of Engineering - Bangalore,"26 KM, Somanahalli, Kanakapura Road, Bangalore, Karnataka Telephone: +91-80-28432837, 267797730,  Fax: +91-80-28432837"
15.,Army institute of Fashion and Design - Bangalore,"ITI Bhavan, Doorvani Nagar, Old Madras Road, Bangalore, Karnataka Telephone: +91-80-57686558, 25617309,  Fax: +91-80- 25618014"
16.,Army Institute of Hotel Management and Catering Technology - Bangalore,"Nagareshwara Nagenahalli, Kothanur Post, Bangalore, Karnataka Telephone: +91-80-64543206, 64543207,  Fax: +91-80-64543206"
17.,Atria Institute of Technology - Bangalore,"Anadanagar, Bangalore, Karnataka Telephone: +91-80-23631298,  Fax: +91-80-23632969"
18.,Auden Technology And Management Academy - Bangalore,"191, 3rd Phase, Banashankari III Stage 100 feet Ring Road, Bangalore, Karnataka Telephone: +91-80-26727527,  Fax: +91-80-28433405"
19.,B E S College of Education - Bangalore,"16th Main, 4th Block, Jaya Nagar, Bangalore, Karnataka Telephone: +91-80-26640129,  Fax: +91-80-26640129"
20.,B. E. S. Evening College of Arts and Commerce - Bangalore,"16th Main, 4th Block, Jayanagar, Bangalore, Karnataka Telephone: +91-80-26637018,  Fax: +91-80-26637018"
21.,B.H.S. First Grade College - Bangalore,"11th Main Road, 4th Block, Jayanagar, Bangalore, Karnataka Telephone: +91-80-26548890"
22.,B.M.S. College for Women - Bangalore,"Bugle Rock Road, Basavangudi, Bangalore, Karnataka Telephone: +91-80-26676729, 26601836,  Fax: +91-80-26676729"
23.,B.M.S. College of Engineering - Bangalore,"P.O. Box No : 1908 Bull Temple Road, Basavanagudi, Bangalore, Karnataka Telephone: +91-80-26622130-35,  Fax: +91-80-26614357"
24.,B.N.M Institute of Technology - Bangalore,"Post Box No. 7087, 12th Main Road, 27th Cross, Banashankari II Stage, Bangalore, Karnataka Telephone: +91-80-26711781, 26711782,  Fax: +91-80-26710881"
25.,Baldwin Polytechnic - Bangalore,"14,Hosur Road, Bangalore, Karnataka Telephone: +91-80-22121535, 22220925,,  Fax: +91-80-22121535"
26.,Bangalore College of Engineering and Technology - Bangalore,"Near Heelalige Railway Station, Chandapura, Bangalore, Karnataka Telephone: +91-80-7834822, 7835331,  Fax: +91-80-7834877"
27.,Bangalore Institute of Legal Studies - Bangalore,"Vijaya College Campus, Basavanagudi, Bangalore, Karnataka Telephone: +91-80-26561072"
28.,Bangalore Institute of Management Studies - Bangalore,"8/35, Opposite R.V. College of Engineering, Mysore Road, Bangalore, Karnataka Telephone: +91-80-65592893,  Fax: +91-80-28605979."
29.,Bangalore Institute of Technology - Bangalore,"K.R.Road, V.V.Puram, Bangalore, Karnataka Telephone: +91-80-26615865 , 26613237,  Fax: +91-80-26526796"
30.,Bangalore Management Academy - Bangalore,"17,Ashirwad Towers, Doddanekkundi Cross, Marathahalli,Mahadevapura Ring Road,Marathahalli Post, Bangalore, Karnataka Telephone: +91-80-28533132,  Fax: +91-80-28532099"
31.,Bangalore Medical College - Bangalore,"Fort, Near K.R. Market, Bangalore, Karnataka Telephone: +91-80-6701529, 6704342,  Fax: +91-80-6704342"
32.,Basava Academy of Engineering - Bangalore,"Gangondanahalli Main Road, NagasandraPost,Near Peenya Dasarahalli, Bangalore, Karnataka Telephone: +91-80-28393613, 28393614, 22714160,  Fax: +91-80-22714160"
33.,"Basaveshwara College of Commerce, Arts & Science - Bangalore","II Block, Rajajinagar, Bangalore, Karnataka Telephone: +91-80-23324500,  Fax: +91-80-23324500"
34.,Bharatiya Samskriti Vidyapith Arts & Commerce College For Women - Bangalore,"Vijaynagar, Bangalore, Karnataka Telephone: +91-80-3301184, 3380816,  Fax: +91-80-3380816"
35.,Bhavan-SIET Institute of Management - Bangalore,"SIET Tower,No.25,Bull Temple Road, Bangalore, Karnataka Telephone: +91-80-41505314, 41508141,  Fax: +91-80-41505313"
36.,Bio Engineering Research Centre - Bangalore,"15th Milestone,Gottigeri, Bannerghatta Road, Bangalore, Karnataka Telephone: +91-80-28429738, 9342585306,  Fax: +91-80-28429738"
37.,Bishop Cotton Womens Christian College - Bangalore,"19, 3rd Cross, CSI Compound, Bangalore, Karnataka Telephone: +91-80-22212933, 22129880, 56955377,  Fax: +91-80-22100512"
38.,BMS Institute of Technology - Bangalore,"P.B.No.6443,Avalahalli, Yelahanka,Doddaballapura Main Road, Bangalore, Karnataka Telephone: +91-80-28567186/87,  Fax: +91-80-28567186"
39.,Brindavan College - Bangalore,"2nd Cross, Bhoopasandra, R.M.V. Extn, 2nd Stage, Bangalore, Karnataka Telephone: +91-80-23414557, 23417833,  Fax: +91-80-23615621, 23417832"
40.,BTL polytechnic - Bangalore,"Hosur Main Road,Bommasandra, Bangalore, Karnataka"
41.,C.N.K.Reddy College of Business Management - Bangalore,"No.193, Double Road, 2nd Stage, Indiranagar, Bangalore, Karnataka Telephone: +91-80-25251847, 25290719,  Fax: +91-80-25295342"
42.,Capital College - Bangalore,"628/C, 2nd Floor, 1st Stage, Indiranagar, Bangalore, Karnataka Telephone: +91-80-5288831, 5271385, 5214246,  Fax: +91-80-5291414"
43.,Central College-Bangalore - Bangalore,"City Campus,Dr.Ambedkar Street, Bangalore, Karnataka Telephone: +91-80-22260926, 22211792,  Fax: +91-80-22260926"
44.,Centre for Product Design & Manufacturing - Bangalore,"Indian Institute of Science, Bangalore, Karnataka Telephone: +91-80-22932359,  Fax: +91-80-23601975, 23600683"
45.,Centre for Rural Development Studies - Bangalore,"Jnana Bharati Campus, Bangalore University, Bangalore, Karnataka Telephone: +91-80-3214001"
46.,Christ College - Bangalore,"Hosur Road, Bangalore, Karnataka Telephone: +91-80-40129100, 40129012,  Fax: +91-80-40129000"
47.,City College - Bangalore,"No.27/2,33rd Cross,2nd Main Road,7th Block,Jayanagar, Bangalore, Karnataka Telephone: +91-80-26649277"
48.,City Engineering College - Bangalore,"Doddakallsandra, Kanakapura Main Road, Bangalore, Karnataka Telephone: +91-80-26669314,  Fax: +91-80-26669314"
49.,Clinotek India-Centre for Advanced Clinical Research Studies - Bangalore,"No.140,2nd Floor,6th-c Main,4th Block,Jayanagar, Bangalore, Karnataka Telephone: +91-80-41717346,  Fax: +91-80-41717346"
50.,CMR College of Nursing - Bangalore,"No.2, 3rd C Cross, 6th A Main, 2nd Block, Hennur Banaswadi Layout, Bangalore, Karnataka"
51.,CMR College of Pharmacy - Bangalore,"No.2, 3rd C Cross, 6th A Main, 2nd Block, Hennur Banaswadi Layout, Bangalore, Karnataka"
52.,CMR College of Physiotherapy - Bangalore,"No.2, 3rd C Cross, 6th A Main, 2nd Block, Hennur Banaswadi Layout, Bangalore, Karnataka"
53.,CMR Institute of Education - Bangalore,"No.2, 3rd C Cross, 6th A Main, 2nd Block, Hennur Banaswadi Layout, Bangalore, Karnataka Telephone: +91-80-25426177, 56971348,  Fax: +91-80-25426177"
54.,CMR Institute of Management Studies - Bangalore,"No.2, 3rd C Cross, 6th A Main, 2nd Block, Hennur Banaswadi Layout, Bangalore, Karnataka Telephone: +91-80-25426177, 56971348, 55353899,  Fax: +91-80-25426177"
55.,CMR Institute of Technology - Bangalore,"I.T. Park Road, Kundalalli Village, Bangalore, Karnataka Telephone: +91-80-25426177, 56971348,  Fax: +91-80-28524477"
56.,CMR Law School - Bangalore,"No.2, 3rd C Cross, 6th A Main, 2nd Block, Hennur Banaswadi Layout, Bangalore, Karnataka"
57.,CMR Teacher Training Institute - Bangalore,"No.2, 3rd C Cross, 6th A Main, 2nd Block, Hennur Banaswadi Layout, Bangalore, Karnataka Telephone: +91-80-28524466/77,  Fax: +91-80-28524630"
58.,College of Advanced Technology Studies - Bangalore,"30, RBANMS Post-Centenary Silver Jubilee Building, Dickenson Road, Bangalore, Karnataka Telephone: +91-80-41135100, 41135200, 25573886"
59.,College of Agriculture - Bangalore,"Hebbal, Bangalore, Karnataka"
60.,College of Fine Arts - Bangalore,"Art Complex,Near Ashoka Hotel, Kumara Krupa Road, Bangalore, Karnataka Telephone: +91-80-22261816, 22263424,  Fax: +91-80-22263424"
61.,Convergence Institute of Media Management and Information Technology Studies - Bangalore,"7, IV Main, Tavarekere Main Road, Bangalore, Karnataka Telephone: +91-80-25530923, 41114010, 41114470,  Fax: +91-80-25530923"
62.,CSI Goodwill Polytechnic for Women - Bangalore,"10, Prompenade Road, (Near Coles Park) Frazer Town, Bangalore, Karnataka Telephone: +91-80-5510483"
63.,CTRC Global School of Business and Technology - Bangalore,"89/1, Raja Ikon, First Floor, Outer Ring Road, Munnekolala, Marathahalli, Bangalore, Karnataka Telephone: +91-80-64567934, 40572999, 25224406,  Fax: +91-80-64567934"
64.,D.A. Pandu Memorial R V Detal College & Hospital,"9th Main,4th Block,Jayanagar, Bangalore, Karnataka Telephone: +91-80-22445754/26547053,  Fax: +91-80-26658411"
65.,Dayananda Sagar Business School - Bangalore,"Shivage Malleshwara Hills, Kumaraswamy Layout, Bangalore, Karnataka Telephone: +91-80-26660789, 26662226, 26661104,  Fax: +91-80-26635929"
66.,Dayananda Sagar College of Engineering - Bangalore,"Shavige Malleswara Hills, Kankapura Road,South-End of Jayanagar, Bangalore, Karnataka Telephone: +91-80-6660789, 6662226, 6636538, 6661104,  Fax: +91-80-6660789, 6635929"
67.,Don Bosco Institute of Technology - Bangalore,"Kumbalagodu, Kengeri Hobli, Mysore Road, Bangalore South Taluk, Bangalore, Karnataka Telephone: +91-80-25042424, 25040508, 25042018, 25041631, 25042828,  Fax: +91-80-25040682"
68.,"Dr. Ambedkar College of Education, Mahalakshmipuram - Bangalore","Pipeline Road, J. C. Nagar, Mahalakshmipuram Post, West of Chord Road, Bangalore, Karnataka Telephone: +91-80-3492503,  Fax: +91-80-3492503"
69.,"Dr. Ambedkar College, Indranagar - Bangalore","HAL II Stage, 5th Cross 7th main Indranagar, Bangalore, Karnataka Telephone: +91-80-25261254, 25261254, 25274994,  Fax: +91-80-25261254"
70.,Dr. Ambedkar Institute of Technology - Bangalore,"Near Janana Bharathi Campus, Bangalore, Karnataka Telephone: +91-80-23211505/06/07, 23218534,  Fax: +91-80-23217789"
71.,Dr. B R Ambedkar Medical College - Bangalore,"Kadugondanahalli, Bangalore, Karnataka Telephone: +91-80-25478904, 1784, 6498,  Fax: +91-80-25478904"
72.,Dr. Gopalraju Government First Grade College - Bangalore,"Anekal, Bangalore, Karnataka"
73.,East Point College of Engineering and Technology - Bangalore,"147, Off Old Madras Road, Virgonagar Post, Bangalore, Karnataka Telephone: +91-80-28473777, 28472999,  Fax: +91-80-28473777"
74.,East West College of Management - Bangalore,"8th Main 2nd Stage, Subramanyan Nagar, Rajajinagar, Bangalore, Karnataka Telephone: +91-80-23322909,  Fax: +91-80-23322909"
75.,East West Institute of Technology - Bangalore,"Off Magadi Road, Vishwaneedam Post, Bangalore, Karnataka Telephone: +91-80-23286732, 23288237, 23288245, 23288899,  Fax: +91-80-23288244"
76.,Ganga Kaveri Institute of Science and Management - Bangalore,"1699, (43/1), Dr. Rajkumar Road, III Stage, Rajajinagar, Bangalore, Karnataka Telephone: +91-80-23429266, 23429917,  Fax: +91-80-23527245"
77.,Garden City College - Bangalore,"628/C, 11th Cross, Indiranagar Ist Stage, Bangalore, Karnataka Telephone: +91-80-5288831, 5271385, 5214246,  Fax: +91-80-5291414"
78.,Ghousia College of Engineering - Bangalore,"Ramanagaram, Bangalore, Karnataka Telephone: +91-80-27271353, 27272589, 27273476,  Fax: +91-80-27273474"
79.,Ghousia Polytechnic for Women - Bangalore,"Hosur Road, Near Diary Circle, Bangalore, Karnataka Telephone: +91-80-25536957, 25536527,  Fax: +91-80-25536527"
80.,Global Academy of Technology - Bangalore,"Rajarajeshwari Nagar, Ideal Home Township, Bangalore, Karnataka Telephone: +91-80-28603158 , 28605957,  Fax: +91-80-28603157"
81.,Government Women College - Bangalore,"Ramanagaram, Bangalore, Karnataka"
82.,Government Arts College - Bangalore,"Dr B R Ambedkar Veedhi,Shivaji Nagar,Near Krishna Rajendra Circle, Shivajinagar, Bangalore, Karnataka Telephone: +91-80-22211115"
83.,"Government First Grade College, Krishnarajapuram - Bangalore","Near Yengainama Lake, Krishnarajapuram, New Extn, Bangalore, Karnataka Telephone: +91-80-5612375"
84.,"Government First Grade College, Ramanagaram - Bangalore","Ramadevara Betta Road, Ramanagaram, Bangalore Rural, Bangalore, Karnataka"
85.,Government Polytechnic for Women - Bangalore,"Sheshadri Road, Bangalore, Karnataka Telephone: +91-80-2265696, 6691639"
86.,Government Ramnarayan Chellaram College of Commerce - Bangalore,"Basaveshwara Circle, Palace Road, Bangalore, Karnataka Telephone: +91-80-22262889,  Fax: +91-80-22262889"
87.,Government Science College - Bangalore,"P.B. No. 5373, Nrupatunga Road, Bangalore, Karnataka Telephone: +91-80-22212924"
88.,Government SKSJ Technological Institute - Bangalore,"K.R. Circle, Bangalore, Karnataka Telephone: +91-80-2260126"
89.,Hasanath College for Women - Bangalore,"No.43,Bangalore,Dickenson Road, Bangalore, Karnataka Telephone: +91-80-25514752, 25362423, 25300504"
90.,Hindustan Academy - Bangalore,"P.B.No 3776,Chinnappanahalli, Marathahalli Post, Bangalore, Karnataka Telephone: +91-80-25238650, 25232217,  Fax: +91-80-25232448"
91.,HKBK College of Engineering - Bangalore,"22/1,Nagawara, Bangalore, Karnataka Telephone: +91-80-25441722, 25443690, 25443698,  Fax: +91-80-25443813"
92.,ICFAI Business School - Bangalore,"19/3, Srinivasa Industrial Estate, Near Metro, Kanakapura Road, Bangalore, Karnataka Telephone: +91-80-26668059,  Fax: +91-79-26860029"
93.,Indian Academy Degree College - Bangalore,"Hennur Cross,Hennur Main Road, Kalyan Nagar,St. Thomas Town, Bangalore, Karnataka Telephone: +91-80-25442370, 25444103, 25446876,  Fax: +91-80-25442370"
94.,Indian Academy of Sciences - Bangalore,"C. V. Raman Avenue,Post Box No. 8005, Sadashivanagar, Bangalore, Karnataka Telephone: +91-80-23612546, 23614592, 23612943,  Fax: +91-80-23616094"
95.,Indian Business Academy - Bangalore,"Lakshmipura,Thataguni Post, Kanakapura Main Road, Bangalore, Karnataka Telephone: +91-80-30961373, 28435931 to 34,  Fax: +91-80-28435935"
96.,Indian Institute of Export Management - Bangalore,"P.B.No.7531,1953,1st Floor, 9th Cross,4th Main, New Tippasandra, Bangalore, Karnataka Telephone: +91-80-25292553,  Fax: +91-80-25297318"
97.,Indian Institute of Hotel Management and Catering Technology - Bangalore,"ASC Centre (South), Bangalore, Karnataka"
98.,Indian Institute of Journalism and New Media - Bangalore,"316, 5th A Cross, HRBR Layout, 3rd Block, Kalyananagar Post, Bangalore, Karnataka Telephone: +91-80-25432565/25432575/25440164/25444995,  Fax: +91-80-25440210"
99.,Indian Institute of Management - Bangalore,"Bannerghatta Road, Bangalore, Karnataka Telephone: + 91-80-26582450,  Fax: +91-80-26584050"
100.,Indian Institute of Plantation Management - Bangalore,"Jnana Bharathi Campus, P.O.Malathalli, Bangalore, Karnataka Telephone: +91-80-23211716,  Fax: +91-80-23212775"
101.,Indian Institute of Science - Bangalore,"8,Iisc Campus Malleshwaram, Bangalore, Karnataka Telephone: +91-80-23600757, 23344411, 23341800,  Fax: +91-80-23600683/0085"
102.,Institute of Bio-Informatics and Applied Biotechnology - Bangalore,"IBAB G-05 Tech Park Mall, Whitefield Road, ITPL, Bangalore, Karnataka Telephone: +91-80-28410029, 28412769, 28416034,  Fax: +91-80-28412761"
103.,Institute of Business Management & Technology - Bangalore,"298, 100 Feet Ring Road, 4th Phase, 7th Block Extension, Banashankari 3rd Stage, Bangalore, Karnataka Telephone: + 91-80-26791740, 26798528, 26792794,  Fax: +91-80-26790517"
104.,Institute of Business Management and Research - Bangalore,"House, 6th Cross, Wilson Garden , Hosur Main Road, Bangalore, Karnataka Telephone: +91-80-41103455, 22484302,  Fax: +91-80-22484302"
105.,Institute of Hotel Management - Bangalore,"S.J. Polytechnic Campus, Seshadri Road, Bangalore, Karnataka Telephone: +91-80-22262960, 22386763,  Fax: +91-80-22268562"
106.,International School of Business & Media - Bangalore,"S.No.124, Yamalur Main Road, off Hal Airport Raod, Marath Halli Colony Post Office, Bangalore, Karnataka Telephone: +91-80-65335646/47,  Fax: +91-80-25225060"
107.,International School of Management Excellence - Bangalore,"CAP 1,EOIZ,Export Promotion Industrial Park,Near ITPL, Whitefield, Bangalore, Karnataka Telephone: +91-80-65606200, 65606300,  Fax: +91-80-28416767"
108.,ISBR Business School - Bangalore,"No.62B,Electronic City-Phase I,Opp.Electronic City Police Station & Post Office, Bangalore, Karnataka Telephone: +91-80-32536372, 32536382,  Fax: +91-80-32536372"
109.,Islamiah Institute of Technology - Bangalore,"National Park Road, Bannerghatta Road, Bangalore, Karnataka Telephone: +91-80-26481774, 26484786,  Fax: + 91-80-26483271"
110.,"ITM Business School, Bangalore - Bangalore","Bannerghatta Road, Behind Meenakshi Temple, Hulimavu, Bangalore, Karnataka Telephone: +91-80-26585737, 6580776,  Fax: +91-80-26585736"
111.,JSS Academy of Technical Education - Bangalore,"JSS Campus,Mylasandra, Uttarahalli-Kengeri Main Road, Bangalore, Karnataka Telephone: +91-80-28603425, 28603702, 28602565, 28602575,  Fax: +91-80-28603706"
112.,Jyoti Nivas College - Bangalore,"Hosur Road, Bangalore, Karnataka Telephone: +91-80-25631730,  Fax: +91-80-25533886"
113.,K N S Institute of Technology - Bangalore,"Hegde Nagar, Kogilu Road, Tirumenahalli, Yelahanka Hobli, Bangalore, Karnataka Telephone: +91-80-28567955,  Fax: +91-80-28567957"
114.,K.P.H.R. Institute of Management Studies - Bangalore,"Udayapura, Kanakapura Road, Bangalore, Karnataka"
115.,Kalabaireshwar Polytechnic - Bangalore,"Kanakapura, Bangalore, Karnataka"
116.,Kempegowda Institute of Medical Science - Bangalore,"Banashankari 2nd Stage, Bangalore, Karnataka Telephone: +91-80-26715790, 26712791/ 92,  Fax: +91-80-26712798"
117.,Kidwai Memorial Institute of Oncology - Bangalore,"Dr. M.H Marigowda Road, Bangalore, Karnataka Telephone: +91-80-6560708,  Fax: +91-80-6560723"
118.,KIET Polytechnic - Bangalore,"34/35, M.M. Industrial Estate, New K.R. Road, BSK II Stage, Bangalore, Karnataka Telephone: +91-80-6762159, 6766965,  Fax: +91-80-26666773 , 26666702"
119.,KIIT School of Management - Bangalore,"621, NMH Complex, 80 Ft. Road, Kormangala, 4th Block, Bangalore, Karnataka Telephone: +91-80-51313123, 25633192,  Fax: +91-80-51309988"
120.,Kristu Jyoti College - Bangalore,"Bosco Nagar, K R Pura, Bangalore, Karnataka Telephone: +91-80-25610012, 25610212,  Fax: +91-80-25610012"
121.,Krupanidhi College of Pharmacy - Bangalore,"Chikka Bellandur, Carmelaram Post, Varthur Hobli, Bangalore, Karnataka Telephone: +91-80-65973261,  Fax: +91-80-41309161"
122.,KS Institute of Technology - Bangalore,"No. 14, Raghuvanahalli, J.P.Nagar, Kanakpura Road, Bangalore, Karnataka Telephone: +91-80-8435723,  Fax: +91-80-28435723"
123.,Lowry Memorial College - Bangalore,"Old Madras Road Dooravani Nagar Landmark: Opposite K.R. Puram Railway Station, Bangalore, Karnataka Telephone: +91-80-28510069"
124.,M S Ramaiah Institute of Management - Bangalore,"M.S.Ramaiah Nagar, MSRIT Post, Bangalore, Karnataka Telephone: +91-80-23608769, 23606909, 23608230,  Fax: +91-80-23601947"
125.,"M. S. Ramaiah College of Arts,Science & Commerce - Bangalore","M.S.R.I.T Post, M.S.R.Nagar, Bangalore, Karnataka Telephone: +91-80-23600966, 23446935,  Fax: +91-80-3600966"
126.,"M.E.S. College of Arts, Commerce & Science - Bangalore","Opposite Indian Overseas Bank, 15th Cross,10th Main, Malleshwaram, Bangalore, Karnataka Telephone: +91-80-23347045, 23341225,  Fax: +91-80-23347045"
127.,M.S Ramaiah Medical College - Bangalore,"MSR Nagar, MSRIT Post, Bangalore, Karnataka Telephone: +91-80-23605190, 23601742, 23601743, 23605408,  Fax: +91-80-23606213"
128.,M.S. Engineering College - Bangalore,"Navarathna Agrahara,Sadahalli PO, Bangalore, Karnataka Telephone: +91-80-32529939, 32946716,  Fax: + 91-80-41137900"
129.,M.S. Ramaiah College of Hotel Management - Bangalore,"M.S. Ramaiah Nagar, MSRIT Post, Bangalore, Karnataka Telephone: +91-80-23601829,  Fax: +91-80-23601815"
130.,M.S. Ramaiah College of Law - Bangalore,"M.S.R Nagar, MSRIT Post, New BEL Road, Bangalore, Karnataka Telephone: +91-80-23606909, 65708015,  Fax: +91-80-23601446"
131.,M.S. Ramaiah Institute of Technology - Bangalore,"Vidya Soudha, MSRIT Post, MSR Nagar, Bangalore, Karnataka Telephone: +91-80-23600822, 23606934, 23607473,  Fax: +91-80-23603124"
132.,M.S. Ramaiah School of Advanced Studies - Bangalore,"Gnanagangothri Campus,New BEL Road, Bangalore, Karnataka Telephone: +91-80-23605539, 23601983, 23604759,  Fax: +91-80-23601923"
133.,Maharani Lakshmi Ammanni College for Women - Bangalore,"Science Post, Malleswaram 18th Cross, Bangalore, Karnataka Telephone: +91-80-23349311,  Fax: +91-80-23349311"
134.,Maharani's Science College for Women - Bangalore,"Palace Road, Bangalore G.P.O, Bangalore, Karnataka Telephone: +91-80-22262796,  Fax: +91-80-22262796"
135.,MATS School of Business and Information Technology - Bangalore,"MATS Tower, 319, 17Cross, 25 Main 6 Phase, J P Nagar, Bangalore, Karnataka Telephone: +91-80-26532728,  Fax: +91-80-26532730"
136.,Medha Business School - Bangalore,"6, S.R.Road, Off New BEL Road,, Bangalore, Karnataka Telephone: +91-80-32429260/235174"
137.,MEI Polytechnic - Bangalore,"Opposite Rama Mandir, 4th Block Rajaji Nagar, Bangalore, Karnataka Telephone: +91-80-23202341,  Fax: +91-80-23202341"
138.,Mount Carmel College - Bangalore,"58, Place Road, Bangalore, Karnataka Telephone: +91-80-22261759 , 22261750,  Fax: +91-80-22286386"
139.,MVJ College of Engineering and Polytechnic - Bangalore,"Near Whitefield, Kadugodi Post, Bangalore, Karnataka Telephone: +91-80-28452324, 28452443, 25917600,  Fax: +91-80-28452443, 28451524"
140.,Nagarjuna College of Engineering and Technology - Bangalore,"Ramogondana Halli, Village Road, YNK Hubli, Bangalore, Karnataka Telephone: +91-80-27645990/1/2/3,  Fax: +91-80-27645990"
141.,Nargund College of Pharmacy - Bangalore,"2nd Cross,Dattatreya Nagar, 100ft Ring Road, Bangalore, Karnataka Telephone: +91-80-26720604,  Fax: +91-80-26421903"
142.,National Centre for Biological Sciences - Bangalore,"Tata Institute of Fundamental Research, GKVK, Bellary Road, Bangalore, Karnataka Telephone: +91-80-23666001/02, 23666018/19,  Fax: +91-80-23636662"
143.,National Degree College - Bangalore,"Jayanagar, Bangalore, Karnataka Telephone: +91-80-6533541, 6549684"
144.,National Institute of Fashion Technology - Bangalore,"NIFT Campus, C A Site No: 21, Sector-1, 27th Main, HSR Layout, Bangalore, Karnataka Telephone: +91-80-25632550-60,  Fax: +91-80-25632566"
145.,National Institute of Mental Health & Neuro Sciences - Bangalore,"Hosur Road, Bangalore, Karnataka Telephone: +91-80-26995001/5002, 26564140, 26561811, 26565822,  Fax: +91-80-26564830"
146.,National Tuberculosis Institute - Bangalore,"AVALON No.8, Bellary Road, Bangalore, Karnataka Telephone: +91-80-3441192, 3441193, 3447951,  Fax: +91-80-3440952"
147.,New Horizon College of Engineering - Bangalore,"Kadabhisanahalli,Varthrer Hobli, Bangalore, Karnataka Telephone: +91-80-28440533, 28440666,  Fax: +91-80-25263042"
148.,"New Horizon College, Indiranagar - Bangalore","100 feet Road,Indiranagar, Bangalore, Karnataka Telephone: +91-80-25261735,  Fax: +91-80-25263042"
149.,Nitte Meenakshi Institute of Technology - Bangalore,"P. B. No. 6429, Govindapura, Gollahalli, Yelahanka, Bangalore, Karnataka Telephone: +91-80-28563616, 28567269, 57684111, 57589555,  Fax: +91-80-28561274"
150.,NMKRV College for Women - Bangalore,"3rd Block, Jayanagar, Bangalore, Karnataka Telephone: +91-80-6637042, 6340116,  Fax: +91-80-6340116"
151.,NRI Institute - Bangalore,"No.6, Papreddy Palya,Nagarbhavi, 2nd stage, Bangalore, Karnataka Telephone: +91-80-23210044, 23211398?,  Fax: +91-80-23211398"
152.,NTTF School of Post Graduate Studies - Bangalore,"National Institute of Fashion Technology, Bangalore, Karnataka Telephone: +91-80-28393167,  Fax: +91-80-51272146"
153.,P. E. S. Degree College - Bangalore,"BNSK 1st Stage, 50 Feet Road, Hanumantha Nagar, Bangalore, Karnataka Telephone: +91-80-26529391, 26679646,  Fax: +91-80-26529391"
154.,P.E.S. Institute of Technology - Bangalore,"100 ft. Ring Road, BSK II Stage, Bangalore, Karnataka Telephone: +91-80-26721983, 26722108,  Fax: +91-80-26720886"
155.,Presidency College - Bangalore,"33/2C & 33/2D, Kempapura, Hebbal, Bangalore, Karnataka Telephone: +91-80-23636173, 23636175, 9243117175,  Fax: +91-80-23636174"
156.,R V Institute of Management - Bangalore,"Jayanagar, 4th T Block, Bangalore, Karnataka Telephone: +91-80-26547048,  Fax: +91-80-26654920"
157.,R. V. College of Engineering - Bangalore,"R. V. Vidyaniketan, Bangalore, Karnataka Telephone: +91-80-28601700/1701,  Fax: +91-80-28600337"
158.,R.B.A.N.M.S First Grade College - Bangalore,"12,Annaswamy,Mudaliar Road, Bangalore, Karnataka Telephone: +91-80-25546159,  Fax: +91-80-25361149"
159.,R.L. Jalappa Institute of Technology - Bangalore,"Kodigehalli, Doddaballapur, Bangalore, Karnataka Telephone: +91-80-27626800,  Fax: +91-80-27625380"
160.,R.N.S. Institute of Technology - Bangalore,"Channasandra, Bangalore, Karnataka Telephone: +91-80-28603880/1/3,  Fax: +91-80-28603882"
161.,Rai Business School - Bangalore,"15th Milestone,Gottigere, Bannerghatta Road, Bangalore, Karnataka Telephone: +91-80-32001911,  Fax: +91-80-28429019"
162.,Rajarajeshwari college of Engineering - Bangalore,"Appa Reddy Complex, 1st Floor, Upstairs of Corporation bank, 5th Cross, Mysore Road, New Guddadahalli, Bangalore, Karnataka Telephone: +91-80-3294 3491,  Fax: +91-80-2843 7393"
163.,Raman Polytechnic - Bangalore,"No134, Vishwa Bharathi Campus, Kamakshipalya, Magadi Road, Bangalore, Karnataka Telephone: +91-80-23488623,  Fax: +91-80-23284817"
164.,APS College of Engineering - Bangalore,"26 KM, Somanahalli, Kanakapura Road, Bangalore, Karnataka Telephone: +91-80-28432837, 267797730,  Fax: +91-80-28432837"
165.,Raman Research Institute - Bangalore,"C. V. Raman Avenue , Sadashivanagar, Bangalore, Karnataka Telephone: +91-80-23610122 to 23610129,  Fax: +91-80-23610492"
166.,Reddy Jana Sangha Institute of Management Studies - Bangalore,"1,17th main 5th Cross, 3rd Block Near BDA Complex Koramangala, Bangalore, Karnataka Telephone: +91-80-25539648, 25523541, 51217412/6,  Fax: +91-80-25539648"
167.,Reva Institute of Technology & Management - Bangalore,"226 & 227, Kattigenahalli, Jala Hobli, Bagalur Cross, Yelahanka, Bangalore, Karnataka Telephone: +91-80-65687563,  Fax: +91-80-28478534"
168.,S Nijalingappa College - Bangalore,"II Block, Rajajinagar, Bangalore, Karnataka Telephone: +91-80-23325020,  Fax: +91-80-23320902"
169.,S. C. T Institute of Technology - Bangalore,"Kaggadasapura Main Road, Vignana Nagar,New Thippasandra(Post),Near Airport, Bangalore, Karnataka Telephone: +91-80-25245225/6206/ 0694,  Fax: +91-80-252455200"
170.,S. J. B. Institute of Technology - Bangalore,"67, BGS Health & Education City Uttarahalli Road (Adjacent to Abhiman Studio), Kengeri, Bangalore, Karnataka Telephone: +91-80-28605445/46,  Fax: +91-80-28603651"
171.,Sambhram Institute of Technology - Bangalore,"Amba Bhavani Temple Road, Jyothinagar, Near M.S.Palya, via Jalahalli East, Bangalore, Karnataka Telephone: +91-80-23643618, 23640612, 23640567,  Fax: +91-80-23641701"
172.,Sampurna Montfort College - Bangalore,"184,Old Madras Road, Indiranagar, Bangalore, Karnataka Telephone: +91-80-25283320, 25284050,  Fax: +91-80-2528035"
173.,Sandeepani School of VLSI Design - Bangalore,"21,7th Main,1st Block, Koramangala, Bangalore, Karnataka Telephone: +91-80-41970400,  Fax: +91-80-25528955"
174.,Sapthagiri College of Engineering - Bangalore,"14/5, Chikkasandra, Hesaraghatta Main Road, (1.5 km from Peenya Dasarahalli Circle), Bangalore, Karnataka Telephone: +91-80-28372801, 28372802, 28372803,  Fax: +91-80-28372797"
175.,School of Management for Infrastructure & Development Strategies - Bangalore,"IHA Campus,20th Main,80 Ft Road,6th Block,Koramangala, Bangalore, Karnataka Telephone: +91-80-65312810, 25533615,  Fax: +91-80-25537664"
176.,Seshadripuram Evening Degree College - Bangalore,"Seshadripuram, Bangalore, Karnataka Telephone: +91-80-22955356, 7,  Fax: +91-80-22955351"
177.,Seshadripuram Institute of Management Studies - Bangalore,"C.A. Site No. 26, Yelahank Newtown, Bangalore, Karnataka Telephone: +91-80-22955369,  Fax: +91-80-22955370/71"
178.,Shirdi Sai Engineering College - Bangalore,"Saileo Nagar,Samandhur(PO) Anekal, Bangalore, Karnataka Telephone: +91-8110-7830221/7840631/32,  Fax: +91-8110-7830355"
179.,Sivananda Sarma Memorial R. V. College - Bangalore,"No 17, 26th Main, 36th Cross, 4th T Block, Jayanagar, Bangalore, Karnataka Telephone: +91-80-26636909"
180.,SJR College for Women - Bangalore,"1/D, 59th C Cross, 4th M Block, Rajaji Nagar, Bangalore, Karnataka Telephone: +91-80-23359474,  Fax: +91-80-23359474"
181.,SLN College of Arts & Commerce - Bangalore,"Krishna Rajendra Market, City Market, Fort, Chamarajapet, Bangalore, Karnataka Telephone: +91-80-26708314,  Fax: +91-80-26708314"
182.,Smt. V. H. D. Central Institute of Home Science - Bangalore,"Palace Road, Bangalore, Karnataka Telephone: +91- 80-22200233/22268209"
183.,Sourashtra Sonnabhai Rajamannaraiah College - Bangalore,"11, 60 Feet Road, Kranthiveera Sangolli Rayanna Road, Amarjyothi Nagar, Vijaynagar, Bangalore, Karnataka Telephone: +91-80-3113811/3107336,  Fax: +91-80-3107336"
184.,Sri Belimatha Mahasamsthana Institute of Technology - Bangalore,"Plot No.6162,Indiranagar,NH4 Bye Pass,Nelamangala, Bangalore, Karnataka Telephone: +91-80-27724344, 27725938, 27723181,  Fax: +91-80-7724344"
185.,Sri Bhagawan Mahaveer Jain College of Engineering - Bangalore,"Jakkasandra Post, Kanakapura Taluk, Bangalore, Karnataka Telephone: +91-80-7577200,  Fax: +91-80-7577199"
186.,Sri Jagadguru Renukacharya College of Law - Bangalore,"9 Race Course Road, Bangalore, Karnataka"
187.,Sri Jayachamarajendra Government Polytechnic - Bangalore,"K. R. Circle, Bangalore, Karnataka Telephone: +91-80-2250069, 2258914,  Fax: +91-80-2250069"
188.,Sri Kongadiyappa College - Bangalore,"Doddaballapura, Bangalore, Karnataka Telephone: +91-80-27622175/23759"
189.,Sri Krishna Institute of Technology - Bangalore,"Hesaraghatta Main Road, Chimney Hills,Chikkabanavara Post, Bangalore, Karnataka Telephone: +91-80-23721477, 23721315,  Fax: +91-80-23721477"
190.,Sri Kuvempu First Grade College - Bangalore,"Kengal, Bangalore, Karnataka"
191.,Sri M Visvesvaraya Institute of Technology - Bangalore,"Krishnadevaraya Nagar, Hunamaramahalli, Bangalore, Karnataka Telephone: +91-80-28467080,  Fax: +91-80-23221750"
192.,Sri Rajiv Gandhi College of Dental Sciences & Hospital - Bangalore,"Cholanagar, R.T. Nagar post, Bangalore, Karnataka Telephone: +91-80-23339377, 23631145, 23335985, 23435559,  Fax: +91-80-23541535"
193.,Sri Revana Siddeshwara Institute of Technology - Bangalore,"NH-7, Chokkanahalli, Chikkajala, Bangalore North, Bangalore, Karnataka Telephone: +91-80-28467850, 28467345, 23330402,  Fax: +91-80-28467345"
194.,Sri Venkateswara Engineering College - Bangalore,"Vidyanagar, Chikkajala, Bangalore, Karnataka Telephone: +91-80-28477460, 23348622,  Fax: +91-80-28477461"
195.,St Anne's First grade College for Women - Bangalore,"No. 2, Millers Road, Vasanthnagar, Bangalore, Karnataka Telephone: +91-80-2383421,  Fax: +91-80-2383421"
196.,St Johns College of Management - Bangalore,"St. Johns College, No.6, 9th Cross,II Main,Vijayanagar II Stage, Bangalore, Karnataka Telephone: +91-80-23300668/23350035,  Fax: +91-80-23350035"
197.,St. Johns Medical College - Bangalore,"St.John's National Academy of Health Sciences Sarjapur Road, Bangalore, Karnataka Telephone: +91-80-25530139,  Fax: +91-80-25530139"
198.,St. Joseph's College of Commerce - Bangalore,"No :163, Brigade Road, Bangalore, Karnataka Telephone: +91-80-25360644, 25360646,  Fax: +91-80-25540378"
199.,"St.George College of Management, Science & Nursing - Bangalore","Ombr Layout Banasawadi, Bangalore, Karnataka Telephone: +91-80-25450193/194,  Fax: +91-80-25458573"
200.,St.Joseph's College of Business Administration - Bangalore,"18, F.M. Cariappa Road, Bangalore, Karnataka Telephone: +91-80-22127765/81/91,  Fax: +91-80-22228771"
201.,Surana College - Bangalore,"16, Sri Nittooru Srinivasa Rao Road, South End Circle, Basavangudi, Bangalore, Karnataka Telephone: +91-80-26346141, 26642292,  Fax: +91-80-26541095"
202.,T. John College - Bangalore,"88/1,Gottegere,Bannerghatta Road, Bangalore, Karnataka Telephone: +91-80-28429624, 25,  Fax: +91-80-25590952"
203.,T. John Institute of Management & Science,"86/3, Gottigere, Bannerghatta Road, Bangalore, Karnataka Telephone: +91-80-6423156,  Fax: +91-80-6423156"
204.,TASMAC College - Bangalore,"Tasmac House, 7th Milestone, Kudalu Gate, Hosur Main Road, Bangalore, Karnataka Telephone: +91-80-32509800/01/02/03,  Fax: +91-80-25733302"
205.,The Oxford College of Business Management - Bangalore,"C.A.Site No.40,1st Phase, J.P.Nagar, Bangalore, Karnataka Telephone: +91-80-26545476, 26630855,  Fax: +91-80-26548658"
206.,The Oxford College of Engineering - Bangalore,"10th Milestone, Bommanahalli, Hosur Road, Bangalore, Karnataka Telephone: +91-80-25737285 to 88,  Fax: +91-80-25730551"
207.,The Oxford Educational Institutions - Bangalore,"C.A. Site No.40, Ist Phase, J.P. Nagar, Bangalore, Karnataka Telephone: +91-80-25737285/6/7/8,  Fax: +91-80-25730551"
208.,The Richmond Fellowship Post Graduate College for Psychosocial Rehabilitation - Bangalore,"40-1/4, 6th Cross, Vajpeyam Gardens, Ashoknagar, Banashankari I Stage, Bangalore, Karnataka Telephone: +91-80-26676134, 26672983,  Fax: +91-80-26672983"
209.,Universal College of Computer Application - Bangalore,"90, Magadi Main Road, Vijaynagar Toll-Gate Circle, Bangalore, Karnataka Telephone: +91-80-23352571/23111020/41673379,  Fax: +91-80-26914004"
210.,University Visvesvaraya College of Engineering - Bangalore,"Janana Bharati Campus, Bangalore, Karnataka Telephone: +91-80-22210694,  Fax: +91-80-22276070"
211.,V. V. N. Degree College - Bangalore,"Bangalore, Karnataka Telephone: +91-80-26601621 / 41692323, 2650 0104,  Fax: +91-80-26678285"
212.,AMC College of Engineering - Bangalore,"30th Cross, 4th Block, Behind Police Station, Jayanagar, Bangalore, Karnataka Telephone: +91-80-26638991/992,  Fax: +91-80-26638994"
213.,Vemana Institute of Technology - Bangalore,"1, Mahayogi Vemana Road (100 ft Road), 3rd Block, Koramangala, Bangalore, Karnataka Telephone: +91-80-25534194, 25529874,  Fax: +91-80-25534943"
214.,Veterinary College - Bangalore,"Hebbal, Bangalore, Karnataka Telephone: +91-80-3410509,  Fax: +91-80-3410509"
215.,Vijaya Degree College - Bangalore,"R V Road,Basavangudi, Bangalore, Karnataka Telephone: +91-80-26561286"
216.,Vijaya Teachers College - Bangalore,"30th Cross, 11th Main 4th Block, Jainagar, Bangalore, Karnataka Telephone: +91-80-26631413,  Fax: +91-80-26631413"
217.,Visveswarapura College of Science - Bangalore,"K. R. Road, V. V. Puram, Bangalore, Karnataka"
218.,Vivekananda Institute of Technology - Bangalore,"Gudimavu, Kumbalagodu (P), Kengeri (Hobli), Bangalore, Karnataka Telephone: +91-80-28437696, 28437036,  Fax: +91-80-28437944"
219.,Vydehi Institute of Medical Sciences and Research - Bangalore,"Vydehi Institute of Medical Sciences and Research Centre 82 EPIP Area, Whitefield, Bangalore, Karnataka Telephone: +91-80-28412956,  Fax: +91-80-28412956"
220.,Welingkar Institute of Management - Bangalore,"102/103, Electronic City Phase 1, Next to Telephone Exchange, Hosur Road, Bangalore, Karnataka Telephone: +91-80-28520817/ 28521066/ 28521067/ 28520480/ 28522514,  Fax: +91-80-41742108"
221.,Wigan & Leigh College-Bangalore - Bangalore,"No.30,Dickenson Road, Bangalore, Karnataka Telephone: +91-80-25574311, 25574312, 41477204,  Fax: +91-80-25574311"
222.,Xavier Institute of Management and Entrepreneurship - Bangalore,"Electronics City,Phase II, Hosur Road, Bangalore, Karnataka Telephone: +91-80-28528477, 28528597, 28528598,  Fax: +91-80-28528733, 28520019"
223.,Yellamma Dasappa Institute of Technology - Bangalore,"Raghuvanahalli, 14th K.M. Kanakapura Road, NH-209, Bangalore, Karnataka Telephone: +91-80-28435829, 28435095, 56692119,  Fax: +91-80-28435829"
224.,B.N.M Institute of Technology - Bangalore,"Post Box No. 7087, 12th Main Road, 27th Cross, Banashankari II Stage, Bangalore, Karnataka Telephone: +91-80-26711781, 26711782,  Fax: +91-80-26710881"
225.,Baldwin Polytechnic - Bangalore,"14,Hosur Road, Bangalore, Karnataka Telephone: +91-80-22121535, 22220925,,  Fax: +91-80-22121535"
